R Notebook for Pease Replication 2015 PID
…
combine

## # A tibble: 1,761 x 101
##     M2ID    B1PF7A  B1SNEURO  B1SAGREE  B1SEXTRA   B1SOPEN  B1SCONS2
##    <dbl> <dbl+lbl> <dbl+lbl> <dbl+lbl> <dbl+lbl> <dbl+lbl> <dbl+lbl>
##  1 10002         1      2.00       3.4       2.6     2.143       2.8
##  2 10019         1      1.50       3.6       3.4     3.143       3.0
##  3 10023         1      1.75       4.0       3.6     3.571       3.4
##  4 10039         8      1.75       3.8       3.0     3.571       3.2
##  5 10040         1      3.00       3.0       3.2     3.429       3.6
##  6 10042         1      1.75       4.0       3.2     3.714       4.0
##  7 10047         1      1.75       4.0       3.0     2.429       4.0
##  8 10050         1      3.00       4.0       2.8     3.714       3.6
##  9 10060         1      2.25       3.6       3.0     3.714       3.0
## 10 10061         1      1.75       3.2       2.4     3.000       3.6
## # ... with 1,751 more rows, and 94 more variables: B4QTA_AG <dbl+lbl>,
## #   B4QTA_AT <dbl+lbl>, B4QTA_AR <dbl+lbl>, B4QAE_AI <dbl+lbl>,
## #   B4QAE_AO <dbl+lbl>, B4QAE_AC <dbl+lbl>, B4QAE_AA <dbl+lbl>,
## #   B1SMPQAG <dbl+lbl>, B1PAGE_M2 <dbl+lbl>, B1PRSEX <dbl+lbl>,
## #   B1SE6A <dbl+lbl>, B1SE6B <dbl+lbl>, B1SE6C <dbl+lbl>,
## #   B1SE6D <dbl+lbl>, B1SE6E <dbl+lbl>, B1SE6F <dbl+lbl>,
## #   B1SE6G <dbl+lbl>, B1SE6H <dbl+lbl>, B1SE6I <dbl+lbl>,
## #   B1SE6J <dbl+lbl>, B1SE6K <dbl+lbl>, B1SE6L <dbl+lbl>,
## #   B1SE6M <dbl+lbl>, B1SE6N <dbl+lbl>, B1SE6O <dbl+lbl>,
…
# create subset of just variable scale scores and the demographic variables
analyze <- analyze %>%  
  select(B1SNEURO, B1SAGREE, B1SEXTRA, B1SOPEN, B1SCONS2,  
         B4QTA_AG, B4QTA_AT, B4QTA_AR, B4QAE_AI, B4QAE_AO, B4QAE_AC,
         B1SMPQAG,
         B1PF7A,
         B1PAGE_M2, B4QAE_AA, 
         GENDER, MALE) %>% 
  filter(complete.cases(B1SNEURO, B1SAGREE, B1SEXTRA, B1SOPEN, B1SCONS2,  
         B4QAE_AA))

analyze

## # A tibble: 627 x 17
##    B1SNEURO B1SAGREE B1SEXTRA B1SOPEN B1SCONS2 B4QTA_AG B4QTA_AT B4QTA_AR
##       <dbl>    <dbl>    <dbl>   <dbl>    <dbl>    <dbl>    <dbl>    <dbl>
##  1     2.00      3.4      2.6   2.143      2.8       21        4        6
##  2     1.50      3.6      3.4   3.143      3.0       26        4       11
##  3     3.00      3.0      3.2   3.429      3.6       20        4        6
##  4     1.75      4.0      3.0   2.429      4.0       27        7        8
##  5     2.25      3.6      3.0   3.714      3.0       24        4        8
##  6     1.75      3.2      2.4   3.000      3.6       22        5        8
##  7     2.00      2.8      3.0   2.857      3.0       24        4        7
##  8     2.25      2.4      1.8   2.714      3.2       24        6        7
##  9     1.50      3.2      2.6   3.714      4.0       25        4        8
## 10     2.25      4.0      2.0   1.429      4.0       16        4        4
## # ... with 617 more rows, and 9 more variables: B4QAE_AI <dbl>,
## #   B4QAE_AO <dbl>, B4QAE_AC <dbl>, B1SMPQAG <dbl>, B1PF7A <fctr>,
## #   B1PAGE_M2 <dbl>, B4QAE_AA <dbl>, GENDER <fctr>, MALE <dbl>
…
