R Notebook: Multilevel Modeling
…
Calculate a mean for each team, and calculate the mean of all team means

team_means <- teams %>%
group_by(team_id) %>%
summarize(mean_score = mean(score))
team_means

## # A tibble: 100 x 2
##    team_id mean_score
##      <int>      <dbl>
##  1       1       68.4
##  2       2       75.8
##  3       3       81.2
##  4       4       93.2
##  5       5       57.2
##  6       6       74.4
##  7       7       62.6
##  8       8       76.8
##  9       9       59  
## 10      10       83.2
## # ... with 90 more rows
…
Fit lm to each team

Group dataset by team

by_team <- teams %>%
group_by(txcond.f, team_id.f)

Fit the slr

estimates <- do(by_team,
tidy(lm(score ~ risk, data = .), conf.int = TRUE, conf.level = .95))
arrange(estimates, team_id.f)

## # A tibble: 200 x 9
## # Groups:   txcond.f, team_id.f [100]
##    txcond.f team_id.f term  estimate std.error statistic p.value conf.low
##    <fct>    <fct>     <chr>    <dbl>     <dbl>     <dbl>   <dbl>    <dbl>
##  1 treatme~ 1         (Int~    72.6       5.95    12.2   1.19e-3   53.7  
##  2 treatme~ 1         risk     -2.1       2.43    -0.864 4.51e-1   -9.83 
##  3 treatme~ 2         (Int~    69.6       7.68     9.07  2.84e-3   45.2  
##  4 treatme~ 2         risk      3.10      3.13     0.989 3.96e-1   -6.87 
##  5 treatme~ 3         (Int~    73.4       2.78    26.4   1.19e-4   64.5  
##  6 treatme~ 3         risk      3.9       1.14     3.43  4.14e-2    0.285
##  7 treatme~ 4         (Int~    99.2       4.96    20.0   2.73e-4   83.4  
##  8 treatme~ 4         risk     -3.        2.02    -1.48  2.35e-1   -9.44 
##  9 treatme~ 5         (Int~    63.8       7.69     8.29  3.67e-3   39.3  
## 10 treatme~ 5         risk     -3.3       3.14    -1.05  3.71e-1  -13.3  
## # ... with 190 more rows, and 1 more variable: conf.high <dbl>
…
